; ModuleID = '/home/vladislavkuznetsov/CLionProjects/llvm-compilation-example/main.cpp'
source_filename = "/home/vladislavkuznetsov/CLionProjects/llvm-compilation-example/main.cpp"
target datalayout = "e-m:e-p270:32:32-p271:32:32-p272:64:64-i64:64-f80:128-n8:16:32:64-S128"
target triple = "x86_64-pc-linux-gnu"

%"class.std::__cxx11::basic_string" = type { %"struct.std::__cxx11::basic_string<char>::_Alloc_hider", i64, %union.anon }
%"struct.std::__cxx11::basic_string<char>::_Alloc_hider" = type { i8* }
%union.anon = type { i64, [8 x i8] }

; Function Attrs: mustprogress noinline nounwind optnone uwtable
define dso_local noundef %"class.std::__cxx11::basic_string"* @_Z7get_strB5cxx11v() #0 !dbg !788 {
  ret %"class.std::__cxx11::basic_string"* null, !dbg !799
}

; Function Attrs: mustprogress noinline norecurse nounwind optnone uwtable
define dso_local noundef i32 @main() #1 !dbg !800 {
  %1 = call noundef %"class.std::__cxx11::basic_string"* @_Z7get_strB5cxx11v(), !dbg !801
  %2 = call noundef i8* @_ZNKSt7__cxx1112basic_stringIcSt11char_traitsIcESaIcEE5c_strEv(%"class.std::__cxx11::basic_string"* noundef nonnull align 8 dereferenceable(32) %1) #3, !dbg !802
  ret i32 0, !dbg !803
}

; Function Attrs: nounwind
declare noundef i8* @_ZNKSt7__cxx1112basic_stringIcSt11char_traitsIcESaIcEE5c_strEv(%"class.std::__cxx11::basic_string"* noundef nonnull align 8 dereferenceable(32)) #2

attributes #0 = { mustprogress noinline nounwind optnone uwtable "frame-pointer"="all" "min-legal-vector-width"="0" "no-trapping-math"="true" "stack-protector-buffer-size"="8" "target-cpu"="x86-64" "target-features"="+cx8,+fxsr,+mmx,+sse,+sse2,+x87" "tune-cpu"="generic" }
attributes #1 = { mustprogress noinline norecurse nounwind optnone uwtable "frame-pointer"="all" "min-legal-vector-width"="0" "no-trapping-math"="true" "stack-protector-buffer-size"="8" "target-cpu"="x86-64" "target-features"="+cx8,+fxsr,+mmx,+sse,+sse2,+x87" "tune-cpu"="generic" }
attributes #2 = { nounwind "frame-pointer"="all" "no-trapping-math"="true" "stack-protector-buffer-size"="8" "target-cpu"="x86-64" "target-features"="+cx8,+fxsr,+mmx,+sse,+sse2,+x87" "tune-cpu"="generic" }
attributes #3 = { nounwind }

!llvm.dbg.cu = !{!0}
!llvm.module.flags = !{!780, !781, !782, !783, !784, !785, !786}
!llvm.ident = !{!787}

!0 = distinct !DICompileUnit(language: DW_LANG_C_plus_plus_14, file: !1, producer: "Ubuntu clang version 14.0.0-1ubuntu1.1", isOptimized: false, runtimeVersion: 0, emissionKind: FullDebug, imports: !2, splitDebugInlining: false, nameTableKind: None)
!1 = !DIFile(filename: "/home/vladislavkuznetsov/CLionProjects/llvm-compilation-example/main.cpp", directory: "/home/vladislavkuznetsov/CLionProjects/llvm-compilation-example/cmake-build-debug-clang", checksumkind: CSK_MD5, checksum: "97f117e0168f779f43f521ceae0f6900")
!2 = !{!3, !24, !27, !32, !40, !48, !52, !59, !63, !67, !69, !71, !75, !87, !91, !97, !103, !105, !109, !113, !117, !121, !134, !136, !140, !144, !148, !150, !156, !160, !164, !166, !168, !172, !180, !184, !188, !192, !194, !200, !202, !209, !214, !218, !223, !227, !231, !235, !237, !239, !243, !247, !251, !253, !257, !261, !263, !265, !269, !275, !280, !285, !286, !287, !288, !289, !290, !291, !292, !293, !294, !295, !302, !306, !309, !312, !315, !317, !319, !321, !324, !327, !330, !333, !336, !338, !343, !347, !350, !353, !355, !357, !359, !361, !364, !367, !370, !373, !376, !378, !382, !386, !391, !397, !399, !401, !403, !405, !407, !409, !411, !413, !415, !417, !419, !421, !423, !427, !431, !435, !441, !445, !449, !454, !456, !460, !464, !468, !478, !480, !484, !488, !492, !496, !500, !504, !508, !512, !516, !520, !524, !526, !530, !534, !538, !544, !548, !552, !554, !558, !562, !568, !570, !574, !578, !582, !586, !590, !594, !598, !599, !600, !601, !603, !604, !605, !606, !607, !608, !609, !613, !619, !624, !628, !630, !632, !634, !636, !643, !647, !651, !655, !659, !663, !668, !672, !674, !678, !684, !688, !693, !695, !697, !701, !705, !707, !709, !711, !713, !717, !719, !721, !725, !729, !733, !737, !741, !745, !747, !751, !755, !759, !763, !765, !767, !771, !775, !776, !777, !778, !779}
!3 = !DIImportedEntity(tag: DW_TAG_imported_declaration, scope: !4, entity: !5, file: !23, line: 64)
!4 = !DINamespace(name: "std", scope: null)
!5 = !DIDerivedType(tag: DW_TAG_typedef, name: "mbstate_t", file: !6, line: 6, baseType: !7)
!6 = !DIFile(filename: "/usr/include/x86_64-linux-gnu/bits/types/mbstate_t.h", directory: "", checksumkind: CSK_MD5, checksum: "ba8742313715e20e434cf6ccb2db98e3")
!7 = !DIDerivedType(tag: DW_TAG_typedef, name: "__mbstate_t", file: !8, line: 21, baseType: !9)
!8 = !DIFile(filename: "/usr/include/x86_64-linux-gnu/bits/types/__mbstate_t.h", directory: "", checksumkind: CSK_MD5, checksum: "82911a3e689448e3691ded3e0b471a55")
!9 = distinct !DICompositeType(tag: DW_TAG_structure_type, file: !8, line: 13, size: 64, flags: DIFlagTypePassByValue, elements: !10, identifier: "_ZTS11__mbstate_t")
!10 = !{!11, !13}
!11 = !DIDerivedType(tag: DW_TAG_member, name: "__count", scope: !9, file: !8, line: 15, baseType: !12, size: 32)
!12 = !DIBasicType(name: "int", size: 32, encoding: DW_ATE_signed)
!13 = !DIDerivedType(tag: DW_TAG_member, name: "__value", scope: !9, file: !8, line: 20, baseType: !14, size: 32, offset: 32)
!14 = distinct !DICompositeType(tag: DW_TAG_union_type, scope: !9, file: !8, line: 16, size: 32, flags: DIFlagTypePassByValue, elements: !15, identifier: "_ZTSN11__mbstate_tUt_E")
!15 = !{!16, !18}
!16 = !DIDerivedType(tag: DW_TAG_member, name: "__wch", scope: !14, file: !8, line: 18, baseType: !17, size: 32)
!17 = !DIBasicType(name: "unsigned int", size: 32, encoding: DW_ATE_unsigned)
!18 = !DIDerivedType(tag: DW_TAG_member, name: "__wchb", scope: !14, file: !8, line: 19, baseType: !19, size: 32)
!19 = !DICompositeType(tag: DW_TAG_array_type, baseType: !20, size: 32, elements: !21)
!20 = !DIBasicType(name: "char", size: 8, encoding: DW_ATE_signed_char)
!21 = !{!22}
!22 = !DISubrange(count: 4)
!23 = !DIFile(filename: "/usr/bin/../lib/gcc/x86_64-linux-gnu/12/../../../../include/c++/12/cwchar", directory: "")
!24 = !DIImportedEntity(tag: DW_TAG_imported_declaration, scope: !4, entity: !25, file: !23, line: 141)
!25 = !DIDerivedType(tag: DW_TAG_typedef, name: "wint_t", file: !26, line: 20, baseType: !17)
!26 = !DIFile(filename: "/usr/include/x86_64-linux-gnu/bits/types/wint_t.h", directory: "", checksumkind: CSK_MD5, checksum: "aa31b53ef28dc23152ceb41e2763ded3")
!27 = !DIImportedEntity(tag: DW_TAG_imported_declaration, scope: !4, entity: !28, file: !23, line: 143)
!28 = !DISubprogram(name: "btowc", scope: !29, file: !29, line: 285, type: !30, flags: DIFlagPrototyped, spFlags: 0)
!29 = !DIFile(filename: "/usr/include/wchar.h", directory: "", checksumkind: CSK_MD5, checksum: "484b7adbbc849bb51cdbcb2d985b07a0")
!30 = !DISubroutineType(types: !31)
!31 = !{!25, !12}
!32 = !DIImportedEntity(tag: DW_TAG_imported_declaration, scope: !4, entity: !33, file: !23, line: 144)
!33 = !DISubprogram(name: "fgetwc", scope: !29, file: !29, line: 744, type: !34, flags: DIFlagPrototyped, spFlags: 0)
!34 = !DISubroutineType(types: !35)
!35 = !{!25, !36}
!36 = !DIDerivedType(tag: DW_TAG_pointer_type, baseType: !37, size: 64)
!37 = !DIDerivedType(tag: DW_TAG_typedef, name: "__FILE", file: !38, line: 5, baseType: !39)
!38 = !DIFile(filename: "/usr/include/x86_64-linux-gnu/bits/types/__FILE.h", directory: "", checksumkind: CSK_MD5, checksum: "72a8fe90981f484acae7c6f3dfc5c2b7")
!39 = !DICompositeType(tag: DW_TAG_structure_type, name: "_IO_FILE", file: !38, line: 4, flags: DIFlagFwdDecl | DIFlagNonTrivial, identifier: "_ZTS8_IO_FILE")
!40 = !DIImportedEntity(tag: DW_TAG_imported_declaration, scope: !4, entity: !41, file: !23, line: 145)
!41 = !DISubprogram(name: "fgetws", scope: !29, file: !29, line: 773, type: !42, flags: DIFlagPrototyped, spFlags: 0)
!42 = !DISubroutineType(types: !43)
!43 = !{!44, !46, !12, !47}
!44 = !DIDerivedType(tag: DW_TAG_pointer_type, baseType: !45, size: 64)
!45 = !DIBasicType(name: "wchar_t", size: 32, encoding: DW_ATE_signed)
!46 = !DIDerivedType(tag: DW_TAG_restrict_type, baseType: !44)
!47 = !DIDerivedType(tag: DW_TAG_restrict_type, baseType: !36)
!48 = !DIImportedEntity(tag: DW_TAG_imported_declaration, scope: !4, entity: !49, file: !23, line: 146)
!49 = !DISubprogram(name: "fputwc", scope: !29, file: !29, line: 758, type: !50, flags: DIFlagPrototyped, spFlags: 0)
!50 = !DISubroutineType(types: !51)
!51 = !{!25, !45, !36}
!52 = !DIImportedEntity(tag: DW_TAG_imported_declaration, scope: !4, entity: !53, file: !23, line: 147)
!53 = !DISubprogram(name: "fputws", scope: !29, file: !29, line: 780, type: !54, flags: DIFlagPrototyped, spFlags: 0)
!54 = !DISubroutineType(types: !55)
!55 = !{!12, !56, !47}
!56 = !DIDerivedType(tag: DW_TAG_restrict_type, baseType: !57)
!57 = !DIDerivedType(tag: DW_TAG_pointer_type, baseType: !58, size: 64)
!58 = !DIDerivedType(tag: DW_TAG_const_type, baseType: !45)
!59 = !DIImportedEntity(tag: DW_TAG_imported_declaration, scope: !4, entity: !60, file: !23, line: 148)
!60 = !DISubprogram(name: "fwide", scope: !29, file: !29, line: 588, type: !61, flags: DIFlagPrototyped, spFlags: 0)
!61 = !DISubroutineType(types: !62)
!62 = !{!12, !36, !12}
!63 = !DIImportedEntity(tag: DW_TAG_imported_declaration, scope: !4, entity: !64, file: !23, line: 149)
!64 = !DISubprogram(name: "fwprintf", scope: !29, file: !29, line: 595, type: !65, flags: DIFlagPrototyped, spFlags: 0)
!65 = !DISubroutineType(types: !66)
!66 = !{!12, !47, !56, null}
!67 = !DIImportedEntity(tag: DW_TAG_imported_declaration, scope: !4, entity: !68, file: !23, line: 150)
!68 = !DISubprogram(name: "fwscanf", linkageName: "__isoc99_fwscanf", scope: !29, file: !29, line: 657, type: !65, flags: DIFlagPrototyped, spFlags: 0)
!69 = !DIImportedEntity(tag: DW_TAG_imported_declaration, scope: !4, entity: !70, file: !23, line: 151)
!70 = !DISubprogram(name: "getwc", scope: !29, file: !29, line: 745, type: !34, flags: DIFlagPrototyped, spFlags: 0)
!71 = !DIImportedEntity(tag: DW_TAG_imported_declaration, scope: !4, entity: !72, file: !23, line: 152)
!72 = !DISubprogram(name: "getwchar", scope: !29, file: !29, line: 751, type: !73, flags: DIFlagPrototyped, spFlags: 0)
!73 = !DISubroutineType(types: !74)
!74 = !{!25}
!75 = !DIImportedEntity(tag: DW_TAG_imported_declaration, scope: !4, entity: !76, file: !23, line: 153)
!76 = !DISubprogram(name: "mbrlen", scope: !29, file: !29, line: 308, type: !77, flags: DIFlagPrototyped, spFlags: 0)
!77 = !DISubroutineType(types: !78)
!78 = !{!79, !82, !79, !85}
!79 = !DIDerivedType(tag: DW_TAG_typedef, name: "size_t", file: !80, line: 46, baseType: !81)
!80 = !DIFile(filename: "/usr/lib/llvm-14/lib/clang/14.0.0/include/stddef.h", directory: "", checksumkind: CSK_MD5, checksum: "2499dd2361b915724b073282bea3a7bc")
!81 = !DIBasicType(name: "unsigned long", size: 64, encoding: DW_ATE_unsigned)
!82 = !DIDerivedType(tag: DW_TAG_restrict_type, baseType: !83)
!83 = !DIDerivedType(tag: DW_TAG_pointer_type, baseType: !84, size: 64)
!84 = !DIDerivedType(tag: DW_TAG_const_type, baseType: !20)
!85 = !DIDerivedType(tag: DW_TAG_restrict_type, baseType: !86)
!86 = !DIDerivedType(tag: DW_TAG_pointer_type, baseType: !5, size: 64)
!87 = !DIImportedEntity(tag: DW_TAG_imported_declaration, scope: !4, entity: !88, file: !23, line: 154)
!88 = !DISubprogram(name: "mbrtowc", scope: !29, file: !29, line: 297, type: !89, flags: DIFlagPrototyped, spFlags: 0)
!89 = !DISubroutineType(types: !90)
!90 = !{!79, !46, !82, !79, !85}
!91 = !DIImportedEntity(tag: DW_TAG_imported_declaration, scope: !4, entity: !92, file: !23, line: 155)
!92 = !DISubprogram(name: "mbsinit", scope: !29, file: !29, line: 293, type: !93, flags: DIFlagPrototyped, spFlags: 0)
!93 = !DISubroutineType(types: !94)
!94 = !{!12, !95}
!95 = !DIDerivedType(tag: DW_TAG_pointer_type, baseType: !96, size: 64)
!96 = !DIDerivedType(tag: DW_TAG_const_type, baseType: !5)
!97 = !DIImportedEntity(tag: DW_TAG_imported_declaration, scope: !4, entity: !98, file: !23, line: 156)
!98 = !DISubprogram(name: "mbsrtowcs", scope: !29, file: !29, line: 338, type: !99, flags: DIFlagPrototyped, spFlags: 0)
!99 = !DISubroutineType(types: !100)
!100 = !{!79, !46, !101, !79, !85}
!101 = !DIDerivedType(tag: DW_TAG_restrict_type, baseType: !102)
!102 = !DIDerivedType(tag: DW_TAG_pointer_type, baseType: !83, size: 64)
!103 = !DIImportedEntity(tag: DW_TAG_imported_declaration, scope: !4, entity: !104, file: !23, line: 157)
!104 = !DISubprogram(name: "putwc", scope: !29, file: !29, line: 759, type: !50, flags: DIFlagPrototyped, spFlags: 0)
!105 = !DIImportedEntity(tag: DW_TAG_imported_declaration, scope: !4, entity: !106, file: !23, line: 158)
!106 = !DISubprogram(name: "putwchar", scope: !29, file: !29, line: 765, type: !107, flags: DIFlagPrototyped, spFlags: 0)
!107 = !DISubroutineType(types: !108)
!108 = !{!25, !45}
!109 = !DIImportedEntity(tag: DW_TAG_imported_declaration, scope: !4, entity: !110, file: !23, line: 160)
!110 = !DISubprogram(name: "swprintf", scope: !29, file: !29, line: 605, type: !111, flags: DIFlagPrototyped, spFlags: 0)
!111 = !DISubroutineType(types: !112)
!112 = !{!12, !46, !79, !56, null}
!113 = !DIImportedEntity(tag: DW_TAG_imported_declaration, scope: !4, entity: !114, file: !23, line: 162)
!114 = !DISubprogram(name: "swscanf", linkageName: "__isoc99_swscanf", scope: !29, file: !29, line: 664, type: !115, flags: DIFlagPrototyped, spFlags: 0)
!115 = !DISubroutineType(types: !116)
!116 = !{!12, !56, !56, null}
!117 = !DIImportedEntity(tag: DW_TAG_imported_declaration, scope: !4, entity: !118, file: !23, line: 163)
!118 = !DISubprogram(name: "ungetwc", scope: !29, file: !29, line: 788, type: !119, flags: DIFlagPrototyped, spFlags: 0)
!119 = !DISubroutineType(types: !120)
!120 = !{!25, !25, !36}
!121 = !DIImportedEntity(tag: DW_TAG_imported_declaration, scope: !4, entity: !122, file: !23, line: 164)
!122 = !DISubprogram(name: "vfwprintf", scope: !29, file: !29, line: 613, type: !123, flags: DIFlagPrototyped, spFlags: 0)
!123 = !DISubroutineType(types: !124)
!124 = !{!12, !47, !56, !125}
!125 = !DIDerivedType(tag: DW_TAG_pointer_type, baseType: !126, size: 64)
!126 = distinct !DICompositeType(tag: DW_TAG_structure_type, name: "__va_list_tag", size: 192, flags: DIFlagTypePassByValue, elements: !127, identifier: "_ZTS13__va_list_tag")
!127 = !{!128, !130, !131, !133}
!128 = !DIDerivedType(tag: DW_TAG_member, name: "gp_offset", scope: !126, file: !129, baseType: !17, size: 32)
!129 = !DIFile(filename: "main.cpp", directory: "/home/vladislavkuznetsov/CLionProjects/llvm-compilation-example")
!130 = !DIDerivedType(tag: DW_TAG_member, name: "fp_offset", scope: !126, file: !129, baseType: !17, size: 32, offset: 32)
!131 = !DIDerivedType(tag: DW_TAG_member, name: "overflow_arg_area", scope: !126, file: !129, baseType: !132, size: 64, offset: 64)
!132 = !DIDerivedType(tag: DW_TAG_pointer_type, baseType: null, size: 64)
!133 = !DIDerivedType(tag: DW_TAG_member, name: "reg_save_area", scope: !126, file: !129, baseType: !132, size: 64, offset: 128)
!134 = !DIImportedEntity(tag: DW_TAG_imported_declaration, scope: !4, entity: !135, file: !23, line: 166)
!135 = !DISubprogram(name: "vfwscanf", linkageName: "__isoc99_vfwscanf", scope: !29, file: !29, line: 711, type: !123, flags: DIFlagPrototyped, spFlags: 0)
!136 = !DIImportedEntity(tag: DW_TAG_imported_declaration, scope: !4, entity: !137, file: !23, line: 169)
!137 = !DISubprogram(name: "vswprintf", scope: !29, file: !29, line: 626, type: !138, flags: DIFlagPrototyped, spFlags: 0)
!138 = !DISubroutineType(types: !139)
!139 = !{!12, !46, !79, !56, !125}
!140 = !DIImportedEntity(tag: DW_TAG_imported_declaration, scope: !4, entity: !141, file: !23, line: 172)
!141 = !DISubprogram(name: "vswscanf", linkageName: "__isoc99_vswscanf", scope: !29, file: !29, line: 718, type: !142, flags: DIFlagPrototyped, spFlags: 0)
!142 = !DISubroutineType(types: !143)
!143 = !{!12, !56, !56, !125}
!144 = !DIImportedEntity(tag: DW_TAG_imported_declaration, scope: !4, entity: !145, file: !23, line: 174)
!145 = !DISubprogram(name: "vwprintf", scope: !29, file: !29, line: 621, type: !146, flags: DIFlagPrototyped, spFlags: 0)
!146 = !DISubroutineType(types: !147)
!147 = !{!12, !56, !125}
!148 = !DIImportedEntity(tag: DW_TAG_imported_declaration, scope: !4, entity: !149, file: !23, line: 176)
!149 = !DISubprogram(name: "vwscanf", linkageName: "__isoc99_vwscanf", scope: !29, file: !29, line: 715, type: !146, flags: DIFlagPrototyped, spFlags: 0)
!150 = !DIImportedEntity(tag: DW_TAG_imported_declaration, scope: !4, entity: !151, file: !23, line: 178)
!151 = !DISubprogram(name: "wcrtomb", scope: !29, file: !29, line: 302, type: !152, flags: DIFlagPrototyped, spFlags: 0)
!152 = !DISubroutineType(types: !153)
!153 = !{!79, !154, !45, !85}
!154 = !DIDerivedType(tag: DW_TAG_restrict_type, baseType: !155)
!155 = !DIDerivedType(tag: DW_TAG_pointer_type, baseType: !20, size: 64)
!156 = !DIImportedEntity(tag: DW_TAG_imported_declaration, scope: !4, entity: !157, file: !23, line: 179)
!157 = !DISubprogram(name: "wcscat", scope: !29, file: !29, line: 97, type: !158, flags: DIFlagPrototyped, spFlags: 0)
!158 = !DISubroutineType(types: !159)
!159 = !{!44, !46, !56}
!160 = !DIImportedEntity(tag: DW_TAG_imported_declaration, scope: !4, entity: !161, file: !23, line: 180)
!161 = !DISubprogram(name: "wcscmp", scope: !29, file: !29, line: 106, type: !162, flags: DIFlagPrototyped, spFlags: 0)
!162 = !DISubroutineType(types: !163)
!163 = !{!12, !57, !57}
!164 = !DIImportedEntity(tag: DW_TAG_imported_declaration, scope: !4, entity: !165, file: !23, line: 181)
!165 = !DISubprogram(name: "wcscoll", scope: !29, file: !29, line: 131, type: !162, flags: DIFlagPrototyped, spFlags: 0)
!166 = !DIImportedEntity(tag: DW_TAG_imported_declaration, scope: !4, entity: !167, file: !23, line: 182)
!167 = !DISubprogram(name: "wcscpy", scope: !29, file: !29, line: 87, type: !158, flags: DIFlagPrototyped, spFlags: 0)
!168 = !DIImportedEntity(tag: DW_TAG_imported_declaration, scope: !4, entity: !169, file: !23, line: 183)
!169 = !DISubprogram(name: "wcscspn", scope: !29, file: !29, line: 188, type: !170, flags: DIFlagPrototyped, spFlags: 0)
!170 = !DISubroutineType(types: !171)
!171 = !{!79, !57, !57}
!172 = !DIImportedEntity(tag: DW_TAG_imported_declaration, scope: !4, entity: !173, file: !23, line: 184)
!173 = !DISubprogram(name: "wcsftime", scope: !29, file: !29, line: 852, type: !174, flags: DIFlagPrototyped, spFlags: 0)
!174 = !DISubroutineType(types: !175)
!175 = !{!79, !46, !79, !56, !176}
!176 = !DIDerivedType(tag: DW_TAG_restrict_type, baseType: !177)
!177 = !DIDerivedType(tag: DW_TAG_pointer_type, baseType: !178, size: 64)
!178 = !DIDerivedType(tag: DW_TAG_const_type, baseType: !179)
!179 = !DICompositeType(tag: DW_TAG_structure_type, name: "tm", file: !29, line: 83, flags: DIFlagFwdDecl | DIFlagNonTrivial, identifier: "_ZTS2tm")
!180 = !DIImportedEntity(tag: DW_TAG_imported_declaration, scope: !4, entity: !181, file: !23, line: 185)
!181 = !DISubprogram(name: "wcslen", scope: !29, file: !29, line: 223, type: !182, flags: DIFlagPrototyped, spFlags: 0)
!182 = !DISubroutineType(types: !183)
!183 = !{!79, !57}
!184 = !DIImportedEntity(tag: DW_TAG_imported_declaration, scope: !4, entity: !185, file: !23, line: 186)
!185 = !DISubprogram(name: "wcsncat", scope: !29, file: !29, line: 101, type: !186, flags: DIFlagPrototyped, spFlags: 0)
!186 = !DISubroutineType(types: !187)
!187 = !{!44, !46, !56, !79}
!188 = !DIImportedEntity(tag: DW_TAG_imported_declaration, scope: !4, entity: !189, file: !23, line: 187)
!189 = !DISubprogram(name: "wcsncmp", scope: !29, file: !29, line: 109, type: !190, flags: DIFlagPrototyped, spFlags: 0)
!190 = !DISubroutineType(types: !191)
!191 = !{!12, !57, !57, !79}
!192 = !DIImportedEntity(tag: DW_TAG_imported_declaration, scope: !4, entity: !193, file: !23, line: 188)
!193 = !DISubprogram(name: "wcsncpy", scope: !29, file: !29, line: 92, type: !186, flags: DIFlagPrototyped, spFlags: 0)
!194 = !DIImportedEntity(tag: DW_TAG_imported_declaration, scope: !4, entity: !195, file: !23, line: 189)
!195 = !DISubprogram(name: "wcsrtombs", scope: !29, file: !29, line: 344, type: !196, flags: DIFlagPrototyped, spFlags: 0)
!196 = !DISubroutineType(types: !197)
!197 = !{!79, !154, !198, !79, !85}
!198 = !DIDerivedType(tag: DW_TAG_restrict_type, baseType: !199)
!199 = !DIDerivedType(tag: DW_TAG_pointer_type, baseType: !57, size: 64)
!200 = !DIImportedEntity(tag: DW_TAG_imported_declaration, scope: !4, entity: !201, file: !23, line: 190)
!201 = !DISubprogram(name: "wcsspn", scope: !29, file: !29, line: 192, type: !170, flags: DIFlagPrototyped, spFlags: 0)
!202 = !DIImportedEntity(tag: DW_TAG_imported_declaration, scope: !4, entity: !203, file: !23, line: 191)
!203 = !DISubprogram(name: "wcstod", scope: !29, file: !29, line: 378, type: !204, flags: DIFlagPrototyped, spFlags: 0)
!204 = !DISubroutineType(types: !205)
!205 = !{!206, !56, !207}
!206 = !DIBasicType(name: "double", size: 64, encoding: DW_ATE_float)
!207 = !DIDerivedType(tag: DW_TAG_restrict_type, baseType: !208)
!208 = !DIDerivedType(tag: DW_TAG_pointer_type, baseType: !44, size: 64)
!209 = !DIImportedEntity(tag: DW_TAG_imported_declaration, scope: !4, entity: !210, file: !23, line: 193)
!210 = !DISubprogram(name: "wcstof", scope: !29, file: !29, line: 383, type: !211, flags: DIFlagPrototyped, spFlags: 0)
!211 = !DISubroutineType(types: !212)
!212 = !{!213, !56, !207}
!213 = !DIBasicType(name: "float", size: 32, encoding: DW_ATE_float)
!214 = !DIImportedEntity(tag: DW_TAG_imported_declaration, scope: !4, entity: !215, file: !23, line: 195)
!215 = !DISubprogram(name: "wcstok", scope: !29, file: !29, line: 218, type: !216, flags: DIFlagPrototyped, spFlags: 0)
!216 = !DISubroutineType(types: !217)
!217 = !{!44, !46, !56, !207}
!218 = !DIImportedEntity(tag: DW_TAG_imported_declaration, scope: !4, entity: !219, file: !23, line: 196)
!219 = !DISubprogram(name: "wcstol", scope: !29, file: !29, line: 429, type: !220, flags: DIFlagPrototyped, spFlags: 0)
!220 = !DISubroutineType(types: !221)
!221 = !{!222, !56, !207, !12}
!222 = !DIBasicType(name: "long", size: 64, encoding: DW_ATE_signed)
!223 = !DIImportedEntity(tag: DW_TAG_imported_declaration, scope: !4, entity: !224, file: !23, line: 197)
!224 = !DISubprogram(name: "wcstoul", scope: !29, file: !29, line: 434, type: !225, flags: DIFlagPrototyped, spFlags: 0)
!225 = !DISubroutineType(types: !226)
!226 = !{!81, !56, !207, !12}
!227 = !DIImportedEntity(tag: DW_TAG_imported_declaration, scope: !4, entity: !228, file: !23, line: 198)
!228 = !DISubprogram(name: "wcsxfrm", scope: !29, file: !29, line: 135, type: !229, flags: DIFlagPrototyped, spFlags: 0)
!229 = !DISubroutineType(types: !230)
!230 = !{!79, !46, !56, !79}
!231 = !DIImportedEntity(tag: DW_TAG_imported_declaration, scope: !4, entity: !232, file: !23, line: 199)
!232 = !DISubprogram(name: "wctob", scope: !29, file: !29, line: 289, type: !233, flags: DIFlagPrototyped, spFlags: 0)
!233 = !DISubroutineType(types: !234)
!234 = !{!12, !25}
!235 = !DIImportedEntity(tag: DW_TAG_imported_declaration, scope: !4, entity: !236, file: !23, line: 200)
!236 = !DISubprogram(name: "wmemcmp", scope: !29, file: !29, line: 259, type: !190, flags: DIFlagPrototyped, spFlags: 0)
!237 = !DIImportedEntity(tag: DW_TAG_imported_declaration, scope: !4, entity: !238, file: !23, line: 201)
!238 = !DISubprogram(name: "wmemcpy", scope: !29, file: !29, line: 263, type: !186, flags: DIFlagPrototyped, spFlags: 0)
!239 = !DIImportedEntity(tag: DW_TAG_imported_declaration, scope: !4, entity: !240, file: !23, line: 202)
!240 = !DISubprogram(name: "wmemmove", scope: !29, file: !29, line: 268, type: !241, flags: DIFlagPrototyped, spFlags: 0)
!241 = !DISubroutineType(types: !242)
!242 = !{!44, !44, !57, !79}
!243 = !DIImportedEntity(tag: DW_TAG_imported_declaration, scope: !4, entity: !244, file: !23, line: 203)
!244 = !DISubprogram(name: "wmemset", scope: !29, file: !29, line: 272, type: !245, flags: DIFlagPrototyped, spFlags: 0)
!245 = !DISubroutineType(types: !246)
!246 = !{!44, !44, !45, !79}
!247 = !DIImportedEntity(tag: DW_TAG_imported_declaration, scope: !4, entity: !248, file: !23, line: 204)
!248 = !DISubprogram(name: "wprintf", scope: !29, file: !29, line: 602, type: !249, flags: DIFlagPrototyped, spFlags: 0)
!249 = !DISubroutineType(types: !250)
!250 = !{!12, !56, null}
!251 = !DIImportedEntity(tag: DW_TAG_imported_declaration, scope: !4, entity: !252, file: !23, line: 205)
!252 = !DISubprogram(name: "wscanf", linkageName: "__isoc99_wscanf", scope: !29, file: !29, line: 661, type: !249, flags: DIFlagPrototyped, spFlags: 0)
!253 = !DIImportedEntity(tag: DW_TAG_imported_declaration, scope: !4, entity: !254, file: !23, line: 206)
!254 = !DISubprogram(name: "wcschr", scope: !29, file: !29, line: 165, type: !255, flags: DIFlagPrototyped, spFlags: 0)
!255 = !DISubroutineType(types: !256)
!256 = !{!44, !57, !45}
!257 = !DIImportedEntity(tag: DW_TAG_imported_declaration, scope: !4, entity: !258, file: !23, line: 207)
!258 = !DISubprogram(name: "wcspbrk", scope: !29, file: !29, line: 202, type: !259, flags: DIFlagPrototyped, spFlags: 0)
!259 = !DISubroutineType(types: !260)
!260 = !{!44, !57, !57}
!261 = !DIImportedEntity(tag: DW_TAG_imported_declaration, scope: !4, entity: !262, file: !23, line: 208)
!262 = !DISubprogram(name: "wcsrchr", scope: !29, file: !29, line: 175, type: !255, flags: DIFlagPrototyped, spFlags: 0)
!263 = !DIImportedEntity(tag: DW_TAG_imported_declaration, scope: !4, entity: !264, file: !23, line: 209)
!264 = !DISubprogram(name: "wcsstr", scope: !29, file: !29, line: 213, type: !259, flags: DIFlagPrototyped, spFlags: 0)
!265 = !DIImportedEntity(tag: DW_TAG_imported_declaration, scope: !4, entity: !266, file: !23, line: 210)
!266 = !DISubprogram(name: "wmemchr", scope: !29, file: !29, line: 254, type: !267, flags: DIFlagPrototyped, spFlags: 0)
!267 = !DISubroutineType(types: !268)
!268 = !{!44, !57, !45, !79}
!269 = !DIImportedEntity(tag: DW_TAG_imported_declaration, scope: !270, entity: !271, file: !23, line: 251)
!270 = !DINamespace(name: "__gnu_cxx", scope: null)
!271 = !DISubprogram(name: "wcstold", scope: !29, file: !29, line: 385, type: !272, flags: DIFlagPrototyped, spFlags: 0)
!272 = !DISubroutineType(types: !273)
!273 = !{!274, !56, !207}
!274 = !DIBasicType(name: "long double", size: 128, encoding: DW_ATE_float)
!275 = !DIImportedEntity(tag: DW_TAG_imported_declaration, scope: !270, entity: !276, file: !23, line: 260)
!276 = !DISubprogram(name: "wcstoll", scope: !29, file: !29, line: 442, type: !277, flags: DIFlagPrototyped, spFlags: 0)
!277 = !DISubroutineType(types: !278)
!278 = !{!279, !56, !207, !12}
!279 = !DIBasicType(name: "long long", size: 64, encoding: DW_ATE_signed)
!280 = !DIImportedEntity(tag: DW_TAG_imported_declaration, scope: !270, entity: !281, file: !23, line: 261)
!281 = !DISubprogram(name: "wcstoull", scope: !29, file: !29, line: 449, type: !282, flags: DIFlagPrototyped, spFlags: 0)
!282 = !DISubroutineType(types: !283)
!283 = !{!284, !56, !207, !12}
!284 = !DIBasicType(name: "unsigned long long", size: 64, encoding: DW_ATE_unsigned)
!285 = !DIImportedEntity(tag: DW_TAG_imported_declaration, scope: !4, entity: !271, file: !23, line: 267)
!286 = !DIImportedEntity(tag: DW_TAG_imported_declaration, scope: !4, entity: !276, file: !23, line: 268)
!287 = !DIImportedEntity(tag: DW_TAG_imported_declaration, scope: !4, entity: !281, file: !23, line: 269)
!288 = !DIImportedEntity(tag: DW_TAG_imported_declaration, scope: !4, entity: !210, file: !23, line: 283)
!289 = !DIImportedEntity(tag: DW_TAG_imported_declaration, scope: !4, entity: !135, file: !23, line: 286)
!290 = !DIImportedEntity(tag: DW_TAG_imported_declaration, scope: !4, entity: !141, file: !23, line: 289)
!291 = !DIImportedEntity(tag: DW_TAG_imported_declaration, scope: !4, entity: !149, file: !23, line: 292)
!292 = !DIImportedEntity(tag: DW_TAG_imported_declaration, scope: !4, entity: !271, file: !23, line: 296)
!293 = !DIImportedEntity(tag: DW_TAG_imported_declaration, scope: !4, entity: !276, file: !23, line: 297)
!294 = !DIImportedEntity(tag: DW_TAG_imported_declaration, scope: !4, entity: !281, file: !23, line: 298)
!295 = !DIImportedEntity(tag: DW_TAG_imported_declaration, scope: !4, entity: !296, file: !301, line: 47)
!296 = !DIDerivedType(tag: DW_TAG_typedef, name: "int8_t", file: !297, line: 24, baseType: !298)
!297 = !DIFile(filename: "/usr/include/x86_64-linux-gnu/bits/stdint-intn.h", directory: "", checksumkind: CSK_MD5, checksum: "55bcbdc3159515ebd91d351a70d505f4")
!298 = !DIDerivedType(tag: DW_TAG_typedef, name: "__int8_t", file: !299, line: 37, baseType: !300)
!299 = !DIFile(filename: "/usr/include/x86_64-linux-gnu/bits/types.h", directory: "", checksumkind: CSK_MD5, checksum: "d108b5f93a74c50510d7d9bc0ab36df9")
!300 = !DIBasicType(name: "signed char", size: 8, encoding: DW_ATE_signed_char)
!301 = !DIFile(filename: "/usr/bin/../lib/gcc/x86_64-linux-gnu/12/../../../../include/c++/12/cstdint", directory: "")
!302 = !DIImportedEntity(tag: DW_TAG_imported_declaration, scope: !4, entity: !303, file: !301, line: 48)
!303 = !DIDerivedType(tag: DW_TAG_typedef, name: "int16_t", file: !297, line: 25, baseType: !304)
!304 = !DIDerivedType(tag: DW_TAG_typedef, name: "__int16_t", file: !299, line: 39, baseType: !305)
!305 = !DIBasicType(name: "short", size: 16, encoding: DW_ATE_signed)
!306 = !DIImportedEntity(tag: DW_TAG_imported_declaration, scope: !4, entity: !307, file: !301, line: 49)
!307 = !DIDerivedType(tag: DW_TAG_typedef, name: "int32_t", file: !297, line: 26, baseType: !308)
!308 = !DIDerivedType(tag: DW_TAG_typedef, name: "__int32_t", file: !299, line: 41, baseType: !12)
!309 = !DIImportedEntity(tag: DW_TAG_imported_declaration, scope: !4, entity: !310, file: !301, line: 50)
!310 = !DIDerivedType(tag: DW_TAG_typedef, name: "int64_t", file: !297, line: 27, baseType: !311)
!311 = !DIDerivedType(tag: DW_TAG_typedef, name: "__int64_t", file: !299, line: 44, baseType: !222)
!312 = !DIImportedEntity(tag: DW_TAG_imported_declaration, scope: !4, entity: !313, file: !301, line: 52)
!313 = !DIDerivedType(tag: DW_TAG_typedef, name: "int_fast8_t", file: !314, line: 58, baseType: !300)
!314 = !DIFile(filename: "/usr/include/stdint.h", directory: "", checksumkind: CSK_MD5, checksum: "a48e64edacc5b19f56c99745232c963c")
!315 = !DIImportedEntity(tag: DW_TAG_imported_declaration, scope: !4, entity: !316, file: !301, line: 53)
!316 = !DIDerivedType(tag: DW_TAG_typedef, name: "int_fast16_t", file: !314, line: 60, baseType: !222)
!317 = !DIImportedEntity(tag: DW_TAG_imported_declaration, scope: !4, entity: !318, file: !301, line: 54)
!318 = !DIDerivedType(tag: DW_TAG_typedef, name: "int_fast32_t", file: !314, line: 61, baseType: !222)
!319 = !DIImportedEntity(tag: DW_TAG_imported_declaration, scope: !4, entity: !320, file: !301, line: 55)
!320 = !DIDerivedType(tag: DW_TAG_typedef, name: "int_fast64_t", file: !314, line: 62, baseType: !222)
!321 = !DIImportedEntity(tag: DW_TAG_imported_declaration, scope: !4, entity: !322, file: !301, line: 57)
!322 = !DIDerivedType(tag: DW_TAG_typedef, name: "int_least8_t", file: !314, line: 43, baseType: !323)
!323 = !DIDerivedType(tag: DW_TAG_typedef, name: "__int_least8_t", file: !299, line: 52, baseType: !298)
!324 = !DIImportedEntity(tag: DW_TAG_imported_declaration, scope: !4, entity: !325, file: !301, line: 58)
!325 = !DIDerivedType(tag: DW_TAG_typedef, name: "int_least16_t", file: !314, line: 44, baseType: !326)
!326 = !DIDerivedType(tag: DW_TAG_typedef, name: "__int_least16_t", file: !299, line: 54, baseType: !304)
!327 = !DIImportedEntity(tag: DW_TAG_imported_declaration, scope: !4, entity: !328, file: !301, line: 59)
!328 = !DIDerivedType(tag: DW_TAG_typedef, name: "int_least32_t", file: !314, line: 45, baseType: !329)
!329 = !DIDerivedType(tag: DW_TAG_typedef, name: "__int_least32_t", file: !299, line: 56, baseType: !308)
!330 = !DIImportedEntity(tag: DW_TAG_imported_declaration, scope: !4, entity: !331, file: !301, line: 60)
!331 = !DIDerivedType(tag: DW_TAG_typedef, name: "int_least64_t", file: !314, line: 46, baseType: !332)
!332 = !DIDerivedType(tag: DW_TAG_typedef, name: "__int_least64_t", file: !299, line: 58, baseType: !311)
!333 = !DIImportedEntity(tag: DW_TAG_imported_declaration, scope: !4, entity: !334, file: !301, line: 62)
!334 = !DIDerivedType(tag: DW_TAG_typedef, name: "intmax_t", file: !314, line: 101, baseType: !335)
!335 = !DIDerivedType(tag: DW_TAG_typedef, name: "__intmax_t", file: !299, line: 72, baseType: !222)
!336 = !DIImportedEntity(tag: DW_TAG_imported_declaration, scope: !4, entity: !337, file: !301, line: 63)
!337 = !DIDerivedType(tag: DW_TAG_typedef, name: "intptr_t", file: !314, line: 87, baseType: !222)
!338 = !DIImportedEntity(tag: DW_TAG_imported_declaration, scope: !4, entity: !339, file: !301, line: 65)
!339 = !DIDerivedType(tag: DW_TAG_typedef, name: "uint8_t", file: !340, line: 24, baseType: !341)
!340 = !DIFile(filename: "/usr/include/x86_64-linux-gnu/bits/stdint-uintn.h", directory: "", checksumkind: CSK_MD5, checksum: "2bf2ae53c58c01b1a1b9383b5195125c")
!341 = !DIDerivedType(tag: DW_TAG_typedef, name: "__uint8_t", file: !299, line: 38, baseType: !342)
!342 = !DIBasicType(name: "unsigned char", size: 8, encoding: DW_ATE_unsigned_char)
!343 = !DIImportedEntity(tag: DW_TAG_imported_declaration, scope: !4, entity: !344, file: !301, line: 66)
!344 = !DIDerivedType(tag: DW_TAG_typedef, name: "uint16_t", file: !340, line: 25, baseType: !345)
!345 = !DIDerivedType(tag: DW_TAG_typedef, name: "__uint16_t", file: !299, line: 40, baseType: !346)
!346 = !DIBasicType(name: "unsigned short", size: 16, encoding: DW_ATE_unsigned)
!347 = !DIImportedEntity(tag: DW_TAG_imported_declaration, scope: !4, entity: !348, file: !301, line: 67)
!348 = !DIDerivedType(tag: DW_TAG_typedef, name: "uint32_t", file: !340, line: 26, baseType: !349)
!349 = !DIDerivedType(tag: DW_TAG_typedef, name: "__uint32_t", file: !299, line: 42, baseType: !17)
!350 = !DIImportedEntity(tag: DW_TAG_imported_declaration, scope: !4, entity: !351, file: !301, line: 68)
!351 = !DIDerivedType(tag: DW_TAG_typedef, name: "uint64_t", file: !340, line: 27, baseType: !352)
!352 = !DIDerivedType(tag: DW_TAG_typedef, name: "__uint64_t", file: !299, line: 45, baseType: !81)
!353 = !DIImportedEntity(tag: DW_TAG_imported_declaration, scope: !4, entity: !354, file: !301, line: 70)
!354 = !DIDerivedType(tag: DW_TAG_typedef, name: "uint_fast8_t", file: !314, line: 71, baseType: !342)
!355 = !DIImportedEntity(tag: DW_TAG_imported_declaration, scope: !4, entity: !356, file: !301, line: 71)
!356 = !DIDerivedType(tag: DW_TAG_typedef, name: "uint_fast16_t", file: !314, line: 73, baseType: !81)
!357 = !DIImportedEntity(tag: DW_TAG_imported_declaration, scope: !4, entity: !358, file: !301, line: 72)
!358 = !DIDerivedType(tag: DW_TAG_typedef, name: "uint_fast32_t", file: !314, line: 74, baseType: !81)
!359 = !DIImportedEntity(tag: DW_TAG_imported_declaration, scope: !4, entity: !360, file: !301, line: 73)
!360 = !DIDerivedType(tag: DW_TAG_typedef, name: "uint_fast64_t", file: !314, line: 75, baseType: !81)
!361 = !DIImportedEntity(tag: DW_TAG_imported_declaration, scope: !4, entity: !362, file: !301, line: 75)
!362 = !DIDerivedType(tag: DW_TAG_typedef, name: "uint_least8_t", file: !314, line: 49, baseType: !363)
!363 = !DIDerivedType(tag: DW_TAG_typedef, name: "__uint_least8_t", file: !299, line: 53, baseType: !341)
!364 = !DIImportedEntity(tag: DW_TAG_imported_declaration, scope: !4, entity: !365, file: !301, line: 76)
!365 = !DIDerivedType(tag: DW_TAG_typedef, name: "uint_least16_t", file: !314, line: 50, baseType: !366)
!366 = !DIDerivedType(tag: DW_TAG_typedef, name: "__uint_least16_t", file: !299, line: 55, baseType: !345)
!367 = !DIImportedEntity(tag: DW_TAG_imported_declaration, scope: !4, entity: !368, file: !301, line: 77)
!368 = !DIDerivedType(tag: DW_TAG_typedef, name: "uint_least32_t", file: !314, line: 51, baseType: !369)
!369 = !DIDerivedType(tag: DW_TAG_typedef, name: "__uint_least32_t", file: !299, line: 57, baseType: !349)
!370 = !DIImportedEntity(tag: DW_TAG_imported_declaration, scope: !4, entity: !371, file: !301, line: 78)
!371 = !DIDerivedType(tag: DW_TAG_typedef, name: "uint_least64_t", file: !314, line: 52, baseType: !372)
!372 = !DIDerivedType(tag: DW_TAG_typedef, name: "__uint_least64_t", file: !299, line: 59, baseType: !352)
!373 = !DIImportedEntity(tag: DW_TAG_imported_declaration, scope: !4, entity: !374, file: !301, line: 80)
!374 = !DIDerivedType(tag: DW_TAG_typedef, name: "uintmax_t", file: !314, line: 102, baseType: !375)
!375 = !DIDerivedType(tag: DW_TAG_typedef, name: "__uintmax_t", file: !299, line: 73, baseType: !81)
!376 = !DIImportedEntity(tag: DW_TAG_imported_declaration, scope: !4, entity: !377, file: !301, line: 81)
!377 = !DIDerivedType(tag: DW_TAG_typedef, name: "uintptr_t", file: !314, line: 90, baseType: !81)
!378 = !DIImportedEntity(tag: DW_TAG_imported_declaration, scope: !4, entity: !379, file: !381, line: 53)
!379 = !DICompositeType(tag: DW_TAG_structure_type, name: "lconv", file: !380, line: 51, size: 768, flags: DIFlagFwdDecl, identifier: "_ZTS5lconv")
!380 = !DIFile(filename: "/usr/include/locale.h", directory: "", checksumkind: CSK_MD5, checksum: "a1d177e0f311dc60a74cb347049d75bc")
!381 = !DIFile(filename: "/usr/bin/../lib/gcc/x86_64-linux-gnu/12/../../../../include/c++/12/clocale", directory: "")
!382 = !DIImportedEntity(tag: DW_TAG_imported_declaration, scope: !4, entity: !383, file: !381, line: 54)
!383 = !DISubprogram(name: "setlocale", scope: !380, file: !380, line: 122, type: !384, flags: DIFlagPrototyped, spFlags: 0)
!384 = !DISubroutineType(types: !385)
!385 = !{!155, !12, !83}
!386 = !DIImportedEntity(tag: DW_TAG_imported_declaration, scope: !4, entity: !387, file: !381, line: 55)
!387 = !DISubprogram(name: "localeconv", scope: !380, file: !380, line: 125, type: !388, flags: DIFlagPrototyped, spFlags: 0)
!388 = !DISubroutineType(types: !389)
!389 = !{!390}
!390 = !DIDerivedType(tag: DW_TAG_pointer_type, baseType: !379, size: 64)
!391 = !DIImportedEntity(tag: DW_TAG_imported_declaration, scope: !4, entity: !392, file: !396, line: 64)
!392 = !DISubprogram(name: "isalnum", scope: !393, file: !393, line: 108, type: !394, flags: DIFlagPrototyped, spFlags: 0)
!393 = !DIFile(filename: "/usr/include/ctype.h", directory: "", checksumkind: CSK_MD5, checksum: "3ab3dd7fdf2578005732722ee2393e59")
!394 = !DISubroutineType(types: !395)
!395 = !{!12, !12}
!396 = !DIFile(filename: "/usr/bin/../lib/gcc/x86_64-linux-gnu/12/../../../../include/c++/12/cctype", directory: "")
!397 = !DIImportedEntity(tag: DW_TAG_imported_declaration, scope: !4, entity: !398, file: !396, line: 65)
!398 = !DISubprogram(name: "isalpha", scope: !393, file: !393, line: 109, type: !394, flags: DIFlagPrototyped, spFlags: 0)
!399 = !DIImportedEntity(tag: DW_TAG_imported_declaration, scope: !4, entity: !400, file: !396, line: 66)
!400 = !DISubprogram(name: "iscntrl", scope: !393, file: !393, line: 110, type: !394, flags: DIFlagPrototyped, spFlags: 0)
!401 = !DIImportedEntity(tag: DW_TAG_imported_declaration, scope: !4, entity: !402, file: !396, line: 67)
!402 = !DISubprogram(name: "isdigit", scope: !393, file: !393, line: 111, type: !394, flags: DIFlagPrototyped, spFlags: 0)
!403 = !DIImportedEntity(tag: DW_TAG_imported_declaration, scope: !4, entity: !404, file: !396, line: 68)
!404 = !DISubprogram(name: "isgraph", scope: !393, file: !393, line: 113, type: !394, flags: DIFlagPrototyped, spFlags: 0)
!405 = !DIImportedEntity(tag: DW_TAG_imported_declaration, scope: !4, entity: !406, file: !396, line: 69)
!406 = !DISubprogram(name: "islower", scope: !393, file: !393, line: 112, type: !394, flags: DIFlagPrototyped, spFlags: 0)
!407 = !DIImportedEntity(tag: DW_TAG_imported_declaration, scope: !4, entity: !408, file: !396, line: 70)
!408 = !DISubprogram(name: "isprint", scope: !393, file: !393, line: 114, type: !394, flags: DIFlagPrototyped, spFlags: 0)
!409 = !DIImportedEntity(tag: DW_TAG_imported_declaration, scope: !4, entity: !410, file: !396, line: 71)
!410 = !DISubprogram(name: "ispunct", scope: !393, file: !393, line: 115, type: !394, flags: DIFlagPrototyped, spFlags: 0)
!411 = !DIImportedEntity(tag: DW_TAG_imported_declaration, scope: !4, entity: !412, file: !396, line: 72)
!412 = !DISubprogram(name: "isspace", scope: !393, file: !393, line: 116, type: !394, flags: DIFlagPrototyped, spFlags: 0)
!413 = !DIImportedEntity(tag: DW_TAG_imported_declaration, scope: !4, entity: !414, file: !396, line: 73)
!414 = !DISubprogram(name: "isupper", scope: !393, file: !393, line: 117, type: !394, flags: DIFlagPrototyped, spFlags: 0)
!415 = !DIImportedEntity(tag: DW_TAG_imported_declaration, scope: !4, entity: !416, file: !396, line: 74)
!416 = !DISubprogram(name: "isxdigit", scope: !393, file: !393, line: 118, type: !394, flags: DIFlagPrototyped, spFlags: 0)
!417 = !DIImportedEntity(tag: DW_TAG_imported_declaration, scope: !4, entity: !418, file: !396, line: 75)
!418 = !DISubprogram(name: "tolower", scope: !393, file: !393, line: 122, type: !394, flags: DIFlagPrototyped, spFlags: 0)
!419 = !DIImportedEntity(tag: DW_TAG_imported_declaration, scope: !4, entity: !420, file: !396, line: 76)
!420 = !DISubprogram(name: "toupper", scope: !393, file: !393, line: 125, type: !394, flags: DIFlagPrototyped, spFlags: 0)
!421 = !DIImportedEntity(tag: DW_TAG_imported_declaration, scope: !4, entity: !422, file: !396, line: 87)
!422 = !DISubprogram(name: "isblank", scope: !393, file: !393, line: 130, type: !394, flags: DIFlagPrototyped, spFlags: 0)
!423 = !DIImportedEntity(tag: DW_TAG_imported_module, scope: !424, entity: !425, file: !426, line: 58)
!424 = !DINamespace(name: "__gnu_debug", scope: null)
!425 = !DINamespace(name: "__debug", scope: !4)
!426 = !DIFile(filename: "/usr/bin/../lib/gcc/x86_64-linux-gnu/12/../../../../include/c++/12/debug/debug.h", directory: "", checksumkind: CSK_MD5, checksum: "09fce61e0085ea92b4bd81d6cd4dcc16")
!427 = !DIImportedEntity(tag: DW_TAG_imported_declaration, scope: !4, entity: !428, file: !430, line: 52)
!428 = !DISubprogram(name: "abs", scope: !429, file: !429, line: 848, type: !394, flags: DIFlagPrototyped, spFlags: 0)
!429 = !DIFile(filename: "/usr/include/stdlib.h", directory: "", checksumkind: CSK_MD5, checksum: "02258fad21adf111bb9df9825e61954a")
!430 = !DIFile(filename: "/usr/bin/../lib/gcc/x86_64-linux-gnu/12/../../../../include/c++/12/bits/std_abs.h", directory: "")
!431 = !DIImportedEntity(tag: DW_TAG_imported_declaration, scope: !4, entity: !432, file: !434, line: 127)
!432 = !DIDerivedType(tag: DW_TAG_typedef, name: "div_t", file: !429, line: 63, baseType: !433)
!433 = !DICompositeType(tag: DW_TAG_structure_type, file: !429, line: 59, size: 64, flags: DIFlagFwdDecl, identifier: "_ZTS5div_t")
!434 = !DIFile(filename: "/usr/bin/../lib/gcc/x86_64-linux-gnu/12/../../../../include/c++/12/cstdlib", directory: "")
!435 = !DIImportedEntity(tag: DW_TAG_imported_declaration, scope: !4, entity: !436, file: !434, line: 128)
!436 = !DIDerivedType(tag: DW_TAG_typedef, name: "ldiv_t", file: !429, line: 71, baseType: !437)
!437 = distinct !DICompositeType(tag: DW_TAG_structure_type, file: !429, line: 67, size: 128, flags: DIFlagTypePassByValue, elements: !438, identifier: "_ZTS6ldiv_t")
!438 = !{!439, !440}
!439 = !DIDerivedType(tag: DW_TAG_member, name: "quot", scope: !437, file: !429, line: 69, baseType: !222, size: 64)
!440 = !DIDerivedType(tag: DW_TAG_member, name: "rem", scope: !437, file: !429, line: 70, baseType: !222, size: 64, offset: 64)
!441 = !DIImportedEntity(tag: DW_TAG_imported_declaration, scope: !4, entity: !442, file: !434, line: 130)
!442 = !DISubprogram(name: "abort", scope: !429, file: !429, line: 598, type: !443, flags: DIFlagPrototyped | DIFlagNoReturn, spFlags: 0)
!443 = !DISubroutineType(types: !444)
!444 = !{null}
!445 = !DIImportedEntity(tag: DW_TAG_imported_declaration, scope: !4, entity: !446, file: !434, line: 132)
!446 = !DISubprogram(name: "aligned_alloc", scope: !429, file: !429, line: 592, type: !447, flags: DIFlagPrototyped, spFlags: 0)
!447 = !DISubroutineType(types: !448)
!448 = !{!132, !79, !79}
!449 = !DIImportedEntity(tag: DW_TAG_imported_declaration, scope: !4, entity: !450, file: !434, line: 134)
!450 = !DISubprogram(name: "atexit", scope: !429, file: !429, line: 602, type: !451, flags: DIFlagPrototyped, spFlags: 0)
!451 = !DISubroutineType(types: !452)
!452 = !{!12, !453}
!453 = !DIDerivedType(tag: DW_TAG_pointer_type, baseType: !443, size: 64)
!454 = !DIImportedEntity(tag: DW_TAG_imported_declaration, scope: !4, entity: !455, file: !434, line: 137)
!455 = !DISubprogram(name: "at_quick_exit", scope: !429, file: !429, line: 607, type: !451, flags: DIFlagPrototyped, spFlags: 0)
!456 = !DIImportedEntity(tag: DW_TAG_imported_declaration, scope: !4, entity: !457, file: !434, line: 140)
!457 = !DISubprogram(name: "atof", scope: !429, file: !429, line: 102, type: !458, flags: DIFlagPrototyped, spFlags: 0)
!458 = !DISubroutineType(types: !459)
!459 = !{!206, !83}
!460 = !DIImportedEntity(tag: DW_TAG_imported_declaration, scope: !4, entity: !461, file: !434, line: 141)
!461 = !DISubprogram(name: "atoi", scope: !429, file: !429, line: 105, type: !462, flags: DIFlagPrototyped, spFlags: 0)
!462 = !DISubroutineType(types: !463)
!463 = !{!12, !83}
!464 = !DIImportedEntity(tag: DW_TAG_imported_declaration, scope: !4, entity: !465, file: !434, line: 142)
!465 = !DISubprogram(name: "atol", scope: !429, file: !429, line: 108, type: !466, flags: DIFlagPrototyped, spFlags: 0)
!466 = !DISubroutineType(types: !467)
!467 = !{!222, !83}
!468 = !DIImportedEntity(tag: DW_TAG_imported_declaration, scope: !4, entity: !469, file: !434, line: 143)
!469 = !DISubprogram(name: "bsearch", scope: !429, file: !429, line: 828, type: !470, flags: DIFlagPrototyped, spFlags: 0)
!470 = !DISubroutineType(types: !471)
!471 = !{!132, !472, !472, !79, !79, !474}
!472 = !DIDerivedType(tag: DW_TAG_pointer_type, baseType: !473, size: 64)
!473 = !DIDerivedType(tag: DW_TAG_const_type, baseType: null)
!474 = !DIDerivedType(tag: DW_TAG_typedef, name: "__compar_fn_t", file: !429, line: 816, baseType: !475)
!475 = !DIDerivedType(tag: DW_TAG_pointer_type, baseType: !476, size: 64)
!476 = !DISubroutineType(types: !477)
!477 = !{!12, !472, !472}
!478 = !DIImportedEntity(tag: DW_TAG_imported_declaration, scope: !4, entity: !479, file: !434, line: 144)
!479 = !DISubprogram(name: "calloc", scope: !429, file: !429, line: 543, type: !447, flags: DIFlagPrototyped, spFlags: 0)
!480 = !DIImportedEntity(tag: DW_TAG_imported_declaration, scope: !4, entity: !481, file: !434, line: 145)
!481 = !DISubprogram(name: "div", scope: !429, file: !429, line: 860, type: !482, flags: DIFlagPrototyped, spFlags: 0)
!482 = !DISubroutineType(types: !483)
!483 = !{!432, !12, !12}
!484 = !DIImportedEntity(tag: DW_TAG_imported_declaration, scope: !4, entity: !485, file: !434, line: 146)
!485 = !DISubprogram(name: "exit", scope: !429, file: !429, line: 624, type: !486, flags: DIFlagPrototyped | DIFlagNoReturn, spFlags: 0)
!486 = !DISubroutineType(types: !487)
!487 = !{null, !12}
!488 = !DIImportedEntity(tag: DW_TAG_imported_declaration, scope: !4, entity: !489, file: !434, line: 147)
!489 = !DISubprogram(name: "free", scope: !429, file: !429, line: 555, type: !490, flags: DIFlagPrototyped, spFlags: 0)
!490 = !DISubroutineType(types: !491)
!491 = !{null, !132}
!492 = !DIImportedEntity(tag: DW_TAG_imported_declaration, scope: !4, entity: !493, file: !434, line: 148)
!493 = !DISubprogram(name: "getenv", scope: !429, file: !429, line: 641, type: !494, flags: DIFlagPrototyped, spFlags: 0)
!494 = !DISubroutineType(types: !495)
!495 = !{!155, !83}
!496 = !DIImportedEntity(tag: DW_TAG_imported_declaration, scope: !4, entity: !497, file: !434, line: 149)
!497 = !DISubprogram(name: "labs", scope: !429, file: !429, line: 849, type: !498, flags: DIFlagPrototyped, spFlags: 0)
!498 = !DISubroutineType(types: !499)
!499 = !{!222, !222}
!500 = !DIImportedEntity(tag: DW_TAG_imported_declaration, scope: !4, entity: !501, file: !434, line: 150)
!501 = !DISubprogram(name: "ldiv", scope: !429, file: !429, line: 862, type: !502, flags: DIFlagPrototyped, spFlags: 0)
!502 = !DISubroutineType(types: !503)
!503 = !{!436, !222, !222}
!504 = !DIImportedEntity(tag: DW_TAG_imported_declaration, scope: !4, entity: !505, file: !434, line: 151)
!505 = !DISubprogram(name: "malloc", scope: !429, file: !429, line: 540, type: !506, flags: DIFlagPrototyped, spFlags: 0)
!506 = !DISubroutineType(types: !507)
!507 = !{!132, !79}
!508 = !DIImportedEntity(tag: DW_TAG_imported_declaration, scope: !4, entity: !509, file: !434, line: 153)
!509 = !DISubprogram(name: "mblen", scope: !429, file: !429, line: 930, type: !510, flags: DIFlagPrototyped, spFlags: 0)
!510 = !DISubroutineType(types: !511)
!511 = !{!12, !83, !79}
!512 = !DIImportedEntity(tag: DW_TAG_imported_declaration, scope: !4, entity: !513, file: !434, line: 154)
!513 = !DISubprogram(name: "mbstowcs", scope: !429, file: !429, line: 941, type: !514, flags: DIFlagPrototyped, spFlags: 0)
!514 = !DISubroutineType(types: !515)
!515 = !{!79, !46, !82, !79}
!516 = !DIImportedEntity(tag: DW_TAG_imported_declaration, scope: !4, entity: !517, file: !434, line: 155)
!517 = !DISubprogram(name: "mbtowc", scope: !429, file: !429, line: 933, type: !518, flags: DIFlagPrototyped, spFlags: 0)
!518 = !DISubroutineType(types: !519)
!519 = !{!12, !46, !82, !79}
!520 = !DIImportedEntity(tag: DW_TAG_imported_declaration, scope: !4, entity: !521, file: !434, line: 157)
!521 = !DISubprogram(name: "qsort", scope: !429, file: !429, line: 838, type: !522, flags: DIFlagPrototyped, spFlags: 0)
!522 = !DISubroutineType(types: !523)
!523 = !{null, !132, !79, !79, !474}
!524 = !DIImportedEntity(tag: DW_TAG_imported_declaration, scope: !4, entity: !525, file: !434, line: 160)
!525 = !DISubprogram(name: "quick_exit", scope: !429, file: !429, line: 630, type: !486, flags: DIFlagPrototyped | DIFlagNoReturn, spFlags: 0)
!526 = !DIImportedEntity(tag: DW_TAG_imported_declaration, scope: !4, entity: !527, file: !434, line: 163)
!527 = !DISubprogram(name: "rand", scope: !429, file: !429, line: 454, type: !528, flags: DIFlagPrototyped, spFlags: 0)
!528 = !DISubroutineType(types: !529)
!529 = !{!12}
!530 = !DIImportedEntity(tag: DW_TAG_imported_declaration, scope: !4, entity: !531, file: !434, line: 164)
!531 = !DISubprogram(name: "realloc", scope: !429, file: !429, line: 551, type: !532, flags: DIFlagPrototyped, spFlags: 0)
!532 = !DISubroutineType(types: !533)
!533 = !{!132, !132, !79}
!534 = !DIImportedEntity(tag: DW_TAG_imported_declaration, scope: !4, entity: !535, file: !434, line: 165)
!535 = !DISubprogram(name: "srand", scope: !429, file: !429, line: 456, type: !536, flags: DIFlagPrototyped, spFlags: 0)
!536 = !DISubroutineType(types: !537)
!537 = !{null, !17}
!538 = !DIImportedEntity(tag: DW_TAG_imported_declaration, scope: !4, entity: !539, file: !434, line: 166)
!539 = !DISubprogram(name: "strtod", scope: !429, file: !429, line: 118, type: !540, flags: DIFlagPrototyped, spFlags: 0)
!540 = !DISubroutineType(types: !541)
!541 = !{!206, !82, !542}
!542 = !DIDerivedType(tag: DW_TAG_restrict_type, baseType: !543)
!543 = !DIDerivedType(tag: DW_TAG_pointer_type, baseType: !155, size: 64)
!544 = !DIImportedEntity(tag: DW_TAG_imported_declaration, scope: !4, entity: !545, file: !434, line: 167)
!545 = !DISubprogram(name: "strtol", scope: !429, file: !429, line: 177, type: !546, flags: DIFlagPrototyped, spFlags: 0)
!546 = !DISubroutineType(types: !547)
!547 = !{!222, !82, !542, !12}
!548 = !DIImportedEntity(tag: DW_TAG_imported_declaration, scope: !4, entity: !549, file: !434, line: 168)
!549 = !DISubprogram(name: "strtoul", scope: !429, file: !429, line: 181, type: !550, flags: DIFlagPrototyped, spFlags: 0)
!550 = !DISubroutineType(types: !551)
!551 = !{!81, !82, !542, !12}
!552 = !DIImportedEntity(tag: DW_TAG_imported_declaration, scope: !4, entity: !553, file: !434, line: 169)
!553 = !DISubprogram(name: "system", scope: !429, file: !429, line: 791, type: !462, flags: DIFlagPrototyped, spFlags: 0)
!554 = !DIImportedEntity(tag: DW_TAG_imported_declaration, scope: !4, entity: !555, file: !434, line: 171)
!555 = !DISubprogram(name: "wcstombs", scope: !429, file: !429, line: 945, type: !556, flags: DIFlagPrototyped, spFlags: 0)
!556 = !DISubroutineType(types: !557)
!557 = !{!79, !154, !56, !79}
!558 = !DIImportedEntity(tag: DW_TAG_imported_declaration, scope: !4, entity: !559, file: !434, line: 172)
!559 = !DISubprogram(name: "wctomb", scope: !429, file: !429, line: 937, type: !560, flags: DIFlagPrototyped, spFlags: 0)
!560 = !DISubroutineType(types: !561)
!561 = !{!12, !155, !45}
!562 = !DIImportedEntity(tag: DW_TAG_imported_declaration, scope: !270, entity: !563, file: !434, line: 200)
!563 = !DIDerivedType(tag: DW_TAG_typedef, name: "lldiv_t", file: !429, line: 81, baseType: !564)
!564 = distinct !DICompositeType(tag: DW_TAG_structure_type, file: !429, line: 77, size: 128, flags: DIFlagTypePassByValue, elements: !565, identifier: "_ZTS7lldiv_t")
!565 = !{!566, !567}
!566 = !DIDerivedType(tag: DW_TAG_member, name: "quot", scope: !564, file: !429, line: 79, baseType: !279, size: 64)
!567 = !DIDerivedType(tag: DW_TAG_member, name: "rem", scope: !564, file: !429, line: 80, baseType: !279, size: 64, offset: 64)
!568 = !DIImportedEntity(tag: DW_TAG_imported_declaration, scope: !270, entity: !569, file: !434, line: 206)
!569 = !DISubprogram(name: "_Exit", scope: !429, file: !429, line: 636, type: !486, flags: DIFlagPrototyped | DIFlagNoReturn, spFlags: 0)
!570 = !DIImportedEntity(tag: DW_TAG_imported_declaration, scope: !270, entity: !571, file: !434, line: 210)
!571 = !DISubprogram(name: "llabs", scope: !429, file: !429, line: 852, type: !572, flags: DIFlagPrototyped, spFlags: 0)
!572 = !DISubroutineType(types: !573)
!573 = !{!279, !279}
!574 = !DIImportedEntity(tag: DW_TAG_imported_declaration, scope: !270, entity: !575, file: !434, line: 216)
!575 = !DISubprogram(name: "lldiv", scope: !429, file: !429, line: 866, type: !576, flags: DIFlagPrototyped, spFlags: 0)
!576 = !DISubroutineType(types: !577)
!577 = !{!563, !279, !279}
!578 = !DIImportedEntity(tag: DW_TAG_imported_declaration, scope: !270, entity: !579, file: !434, line: 227)
!579 = !DISubprogram(name: "atoll", scope: !429, file: !429, line: 113, type: !580, flags: DIFlagPrototyped, spFlags: 0)
!580 = !DISubroutineType(types: !581)
!581 = !{!279, !83}
!582 = !DIImportedEntity(tag: DW_TAG_imported_declaration, scope: !270, entity: !583, file: !434, line: 228)
!583 = !DISubprogram(name: "strtoll", scope: !429, file: !429, line: 201, type: !584, flags: DIFlagPrototyped, spFlags: 0)
!584 = !DISubroutineType(types: !585)
!585 = !{!279, !82, !542, !12}
!586 = !DIImportedEntity(tag: DW_TAG_imported_declaration, scope: !270, entity: !587, file: !434, line: 229)
!587 = !DISubprogram(name: "strtoull", scope: !429, file: !429, line: 206, type: !588, flags: DIFlagPrototyped, spFlags: 0)
!588 = !DISubroutineType(types: !589)
!589 = !{!284, !82, !542, !12}
!590 = !DIImportedEntity(tag: DW_TAG_imported_declaration, scope: !270, entity: !591, file: !434, line: 231)
!591 = !DISubprogram(name: "strtof", scope: !429, file: !429, line: 124, type: !592, flags: DIFlagPrototyped, spFlags: 0)
!592 = !DISubroutineType(types: !593)
!593 = !{!213, !82, !542}
!594 = !DIImportedEntity(tag: DW_TAG_imported_declaration, scope: !270, entity: !595, file: !434, line: 232)
!595 = !DISubprogram(name: "strtold", scope: !429, file: !429, line: 127, type: !596, flags: DIFlagPrototyped, spFlags: 0)
!596 = !DISubroutineType(types: !597)
!597 = !{!274, !82, !542}
!598 = !DIImportedEntity(tag: DW_TAG_imported_declaration, scope: !4, entity: !563, file: !434, line: 240)
!599 = !DIImportedEntity(tag: DW_TAG_imported_declaration, scope: !4, entity: !569, file: !434, line: 242)
!600 = !DIImportedEntity(tag: DW_TAG_imported_declaration, scope: !4, entity: !571, file: !434, line: 244)
!601 = !DIImportedEntity(tag: DW_TAG_imported_declaration, scope: !4, entity: !602, file: !434, line: 245)
!602 = !DISubprogram(name: "div", linkageName: "_ZN9__gnu_cxx3divExx", scope: !270, file: !434, line: 213, type: !576, flags: DIFlagPrototyped, spFlags: 0)
!603 = !DIImportedEntity(tag: DW_TAG_imported_declaration, scope: !4, entity: !575, file: !434, line: 246)
!604 = !DIImportedEntity(tag: DW_TAG_imported_declaration, scope: !4, entity: !579, file: !434, line: 248)
!605 = !DIImportedEntity(tag: DW_TAG_imported_declaration, scope: !4, entity: !591, file: !434, line: 249)
!606 = !DIImportedEntity(tag: DW_TAG_imported_declaration, scope: !4, entity: !583, file: !434, line: 250)
!607 = !DIImportedEntity(tag: DW_TAG_imported_declaration, scope: !4, entity: !587, file: !434, line: 251)
!608 = !DIImportedEntity(tag: DW_TAG_imported_declaration, scope: !4, entity: !595, file: !434, line: 252)
!609 = !DIImportedEntity(tag: DW_TAG_imported_declaration, scope: !4, entity: !610, file: !612, line: 98)
!610 = !DIDerivedType(tag: DW_TAG_typedef, name: "FILE", file: !611, line: 7, baseType: !39)
!611 = !DIFile(filename: "/usr/include/x86_64-linux-gnu/bits/types/FILE.h", directory: "", checksumkind: CSK_MD5, checksum: "571f9fb6223c42439075fdde11a0de5d")
!612 = !DIFile(filename: "/usr/bin/../lib/gcc/x86_64-linux-gnu/12/../../../../include/c++/12/cstdio", directory: "")
!613 = !DIImportedEntity(tag: DW_TAG_imported_declaration, scope: !4, entity: !614, file: !612, line: 99)
!614 = !DIDerivedType(tag: DW_TAG_typedef, name: "fpos_t", file: !615, line: 84, baseType: !616)
!615 = !DIFile(filename: "/usr/include/stdio.h", directory: "", checksumkind: CSK_MD5, checksum: "f31eefcc3f15835fc5a4023a625cf609")
!616 = !DIDerivedType(tag: DW_TAG_typedef, name: "__fpos_t", file: !617, line: 14, baseType: !618)
!617 = !DIFile(filename: "/usr/include/x86_64-linux-gnu/bits/types/__fpos_t.h", directory: "", checksumkind: CSK_MD5, checksum: "32de8bdaf3551a6c0a9394f9af4389ce")
!618 = !DICompositeType(tag: DW_TAG_structure_type, name: "_G_fpos_t", file: !617, line: 10, size: 128, flags: DIFlagFwdDecl, identifier: "_ZTS9_G_fpos_t")
!619 = !DIImportedEntity(tag: DW_TAG_imported_declaration, scope: !4, entity: !620, file: !612, line: 101)
!620 = !DISubprogram(name: "clearerr", scope: !615, file: !615, line: 786, type: !621, flags: DIFlagPrototyped, spFlags: 0)
!621 = !DISubroutineType(types: !622)
!622 = !{null, !623}
!623 = !DIDerivedType(tag: DW_TAG_pointer_type, baseType: !610, size: 64)
!624 = !DIImportedEntity(tag: DW_TAG_imported_declaration, scope: !4, entity: !625, file: !612, line: 102)
!625 = !DISubprogram(name: "fclose", scope: !615, file: !615, line: 178, type: !626, flags: DIFlagPrototyped, spFlags: 0)
!626 = !DISubroutineType(types: !627)
!627 = !{!12, !623}
!628 = !DIImportedEntity(tag: DW_TAG_imported_declaration, scope: !4, entity: !629, file: !612, line: 103)
!629 = !DISubprogram(name: "feof", scope: !615, file: !615, line: 788, type: !626, flags: DIFlagPrototyped, spFlags: 0)
!630 = !DIImportedEntity(tag: DW_TAG_imported_declaration, scope: !4, entity: !631, file: !612, line: 104)
!631 = !DISubprogram(name: "ferror", scope: !615, file: !615, line: 790, type: !626, flags: DIFlagPrototyped, spFlags: 0)
!632 = !DIImportedEntity(tag: DW_TAG_imported_declaration, scope: !4, entity: !633, file: !612, line: 105)
!633 = !DISubprogram(name: "fflush", scope: !615, file: !615, line: 230, type: !626, flags: DIFlagPrototyped, spFlags: 0)
!634 = !DIImportedEntity(tag: DW_TAG_imported_declaration, scope: !4, entity: !635, file: !612, line: 106)
!635 = !DISubprogram(name: "fgetc", scope: !615, file: !615, line: 513, type: !626, flags: DIFlagPrototyped, spFlags: 0)
!636 = !DIImportedEntity(tag: DW_TAG_imported_declaration, scope: !4, entity: !637, file: !612, line: 107)
!637 = !DISubprogram(name: "fgetpos", scope: !615, file: !615, line: 760, type: !638, flags: DIFlagPrototyped, spFlags: 0)
!638 = !DISubroutineType(types: !639)
!639 = !{!12, !640, !641}
!640 = !DIDerivedType(tag: DW_TAG_restrict_type, baseType: !623)
!641 = !DIDerivedType(tag: DW_TAG_restrict_type, baseType: !642)
!642 = !DIDerivedType(tag: DW_TAG_pointer_type, baseType: !614, size: 64)
!643 = !DIImportedEntity(tag: DW_TAG_imported_declaration, scope: !4, entity: !644, file: !612, line: 108)
!644 = !DISubprogram(name: "fgets", scope: !615, file: !615, line: 592, type: !645, flags: DIFlagPrototyped, spFlags: 0)
!645 = !DISubroutineType(types: !646)
!646 = !{!155, !154, !12, !640}
!647 = !DIImportedEntity(tag: DW_TAG_imported_declaration, scope: !4, entity: !648, file: !612, line: 109)
!648 = !DISubprogram(name: "fopen", scope: !615, file: !615, line: 258, type: !649, flags: DIFlagPrototyped, spFlags: 0)
!649 = !DISubroutineType(types: !650)
!650 = !{!623, !82, !82}
!651 = !DIImportedEntity(tag: DW_TAG_imported_declaration, scope: !4, entity: !652, file: !612, line: 110)
!652 = !DISubprogram(name: "fprintf", scope: !615, file: !615, line: 350, type: !653, flags: DIFlagPrototyped, spFlags: 0)
!653 = !DISubroutineType(types: !654)
!654 = !{!12, !640, !82, null}
!655 = !DIImportedEntity(tag: DW_TAG_imported_declaration, scope: !4, entity: !656, file: !612, line: 111)
!656 = !DISubprogram(name: "fputc", scope: !615, file: !615, line: 549, type: !657, flags: DIFlagPrototyped, spFlags: 0)
!657 = !DISubroutineType(types: !658)
!658 = !{!12, !12, !623}
!659 = !DIImportedEntity(tag: DW_TAG_imported_declaration, scope: !4, entity: !660, file: !612, line: 112)
!660 = !DISubprogram(name: "fputs", scope: !615, file: !615, line: 655, type: !661, flags: DIFlagPrototyped, spFlags: 0)
!661 = !DISubroutineType(types: !662)
!662 = !{!12, !82, !640}
!663 = !DIImportedEntity(tag: DW_TAG_imported_declaration, scope: !4, entity: !664, file: !612, line: 113)
!664 = !DISubprogram(name: "fread", scope: !615, file: !615, line: 675, type: !665, flags: DIFlagPrototyped, spFlags: 0)
!665 = !DISubroutineType(types: !666)
!666 = !{!79, !667, !79, !79, !640}
!667 = !DIDerivedType(tag: DW_TAG_restrict_type, baseType: !132)
!668 = !DIImportedEntity(tag: DW_TAG_imported_declaration, scope: !4, entity: !669, file: !612, line: 114)
!669 = !DISubprogram(name: "freopen", scope: !615, file: !615, line: 265, type: !670, flags: DIFlagPrototyped, spFlags: 0)
!670 = !DISubroutineType(types: !671)
!671 = !{!623, !82, !82, !640}
!672 = !DIImportedEntity(tag: DW_TAG_imported_declaration, scope: !4, entity: !673, file: !612, line: 115)
!673 = !DISubprogram(name: "fscanf", linkageName: "__isoc99_fscanf", scope: !615, file: !615, line: 434, type: !653, flags: DIFlagPrototyped, spFlags: 0)
!674 = !DIImportedEntity(tag: DW_TAG_imported_declaration, scope: !4, entity: !675, file: !612, line: 116)
!675 = !DISubprogram(name: "fseek", scope: !615, file: !615, line: 713, type: !676, flags: DIFlagPrototyped, spFlags: 0)
!676 = !DISubroutineType(types: !677)
!677 = !{!12, !623, !222, !12}
!678 = !DIImportedEntity(tag: DW_TAG_imported_declaration, scope: !4, entity: !679, file: !612, line: 117)
!679 = !DISubprogram(name: "fsetpos", scope: !615, file: !615, line: 765, type: !680, flags: DIFlagPrototyped, spFlags: 0)
!680 = !DISubroutineType(types: !681)
!681 = !{!12, !623, !682}
!682 = !DIDerivedType(tag: DW_TAG_pointer_type, baseType: !683, size: 64)
!683 = !DIDerivedType(tag: DW_TAG_const_type, baseType: !614)
!684 = !DIImportedEntity(tag: DW_TAG_imported_declaration, scope: !4, entity: !685, file: !612, line: 118)
!685 = !DISubprogram(name: "ftell", scope: !615, file: !615, line: 718, type: !686, flags: DIFlagPrototyped, spFlags: 0)
!686 = !DISubroutineType(types: !687)
!687 = !{!222, !623}
!688 = !DIImportedEntity(tag: DW_TAG_imported_declaration, scope: !4, entity: !689, file: !612, line: 119)
!689 = !DISubprogram(name: "fwrite", scope: !615, file: !615, line: 681, type: !690, flags: DIFlagPrototyped, spFlags: 0)
!690 = !DISubroutineType(types: !691)
!691 = !{!79, !692, !79, !79, !640}
!692 = !DIDerivedType(tag: DW_TAG_restrict_type, baseType: !472)
!693 = !DIImportedEntity(tag: DW_TAG_imported_declaration, scope: !4, entity: !694, file: !612, line: 120)
!694 = !DISubprogram(name: "getc", scope: !615, file: !615, line: 514, type: !626, flags: DIFlagPrototyped, spFlags: 0)
!695 = !DIImportedEntity(tag: DW_TAG_imported_declaration, scope: !4, entity: !696, file: !612, line: 121)
!696 = !DISubprogram(name: "getchar", scope: !615, file: !615, line: 520, type: !528, flags: DIFlagPrototyped, spFlags: 0)
!697 = !DIImportedEntity(tag: DW_TAG_imported_declaration, scope: !4, entity: !698, file: !612, line: 126)
!698 = !DISubprogram(name: "perror", scope: !615, file: !615, line: 804, type: !699, flags: DIFlagPrototyped, spFlags: 0)
!699 = !DISubroutineType(types: !700)
!700 = !{null, !83}
!701 = !DIImportedEntity(tag: DW_TAG_imported_declaration, scope: !4, entity: !702, file: !612, line: 127)
!702 = !DISubprogram(name: "printf", scope: !615, file: !615, line: 356, type: !703, flags: DIFlagPrototyped, spFlags: 0)
!703 = !DISubroutineType(types: !704)
!704 = !{!12, !82, null}
!705 = !DIImportedEntity(tag: DW_TAG_imported_declaration, scope: !4, entity: !706, file: !612, line: 128)
!706 = !DISubprogram(name: "putc", scope: !615, file: !615, line: 550, type: !657, flags: DIFlagPrototyped, spFlags: 0)
!707 = !DIImportedEntity(tag: DW_TAG_imported_declaration, scope: !4, entity: !708, file: !612, line: 129)
!708 = !DISubprogram(name: "putchar", scope: !615, file: !615, line: 556, type: !394, flags: DIFlagPrototyped, spFlags: 0)
!709 = !DIImportedEntity(tag: DW_TAG_imported_declaration, scope: !4, entity: !710, file: !612, line: 130)
!710 = !DISubprogram(name: "puts", scope: !615, file: !615, line: 661, type: !462, flags: DIFlagPrototyped, spFlags: 0)
!711 = !DIImportedEntity(tag: DW_TAG_imported_declaration, scope: !4, entity: !712, file: !612, line: 131)
!712 = !DISubprogram(name: "remove", scope: !615, file: !615, line: 152, type: !462, flags: DIFlagPrototyped, spFlags: 0)
!713 = !DIImportedEntity(tag: DW_TAG_imported_declaration, scope: !4, entity: !714, file: !612, line: 132)
!714 = !DISubprogram(name: "rename", scope: !615, file: !615, line: 154, type: !715, flags: DIFlagPrototyped, spFlags: 0)
!715 = !DISubroutineType(types: !716)
!716 = !{!12, !83, !83}
!717 = !DIImportedEntity(tag: DW_TAG_imported_declaration, scope: !4, entity: !718, file: !612, line: 133)
!718 = !DISubprogram(name: "rewind", scope: !615, file: !615, line: 723, type: !621, flags: DIFlagPrototyped, spFlags: 0)
!719 = !DIImportedEntity(tag: DW_TAG_imported_declaration, scope: !4, entity: !720, file: !612, line: 134)
!720 = !DISubprogram(name: "scanf", linkageName: "__isoc99_scanf", scope: !615, file: !615, line: 437, type: !703, flags: DIFlagPrototyped, spFlags: 0)
!721 = !DIImportedEntity(tag: DW_TAG_imported_declaration, scope: !4, entity: !722, file: !612, line: 135)
!722 = !DISubprogram(name: "setbuf", scope: !615, file: !615, line: 328, type: !723, flags: DIFlagPrototyped, spFlags: 0)
!723 = !DISubroutineType(types: !724)
!724 = !{null, !640, !154}
!725 = !DIImportedEntity(tag: DW_TAG_imported_declaration, scope: !4, entity: !726, file: !612, line: 136)
!726 = !DISubprogram(name: "setvbuf", scope: !615, file: !615, line: 332, type: !727, flags: DIFlagPrototyped, spFlags: 0)
!727 = !DISubroutineType(types: !728)
!728 = !{!12, !640, !154, !12, !79}
!729 = !DIImportedEntity(tag: DW_TAG_imported_declaration, scope: !4, entity: !730, file: !612, line: 137)
!730 = !DISubprogram(name: "sprintf", scope: !615, file: !615, line: 358, type: !731, flags: DIFlagPrototyped, spFlags: 0)
!731 = !DISubroutineType(types: !732)
!732 = !{!12, !154, !82, null}
!733 = !DIImportedEntity(tag: DW_TAG_imported_declaration, scope: !4, entity: !734, file: !612, line: 138)
!734 = !DISubprogram(name: "sscanf", linkageName: "__isoc99_sscanf", scope: !615, file: !615, line: 439, type: !735, flags: DIFlagPrototyped, spFlags: 0)
!735 = !DISubroutineType(types: !736)
!736 = !{!12, !82, !82, null}
!737 = !DIImportedEntity(tag: DW_TAG_imported_declaration, scope: !4, entity: !738, file: !612, line: 139)
!738 = !DISubprogram(name: "tmpfile", scope: !615, file: !615, line: 188, type: !739, flags: DIFlagPrototyped, spFlags: 0)
!739 = !DISubroutineType(types: !740)
!740 = !{!623}
!741 = !DIImportedEntity(tag: DW_TAG_imported_declaration, scope: !4, entity: !742, file: !612, line: 141)
!742 = !DISubprogram(name: "tmpnam", scope: !615, file: !615, line: 205, type: !743, flags: DIFlagPrototyped, spFlags: 0)
!743 = !DISubroutineType(types: !744)
!744 = !{!155, !155}
!745 = !DIImportedEntity(tag: DW_TAG_imported_declaration, scope: !4, entity: !746, file: !612, line: 143)
!746 = !DISubprogram(name: "ungetc", scope: !615, file: !615, line: 668, type: !657, flags: DIFlagPrototyped, spFlags: 0)
!747 = !DIImportedEntity(tag: DW_TAG_imported_declaration, scope: !4, entity: !748, file: !612, line: 144)
!748 = !DISubprogram(name: "vfprintf", scope: !615, file: !615, line: 365, type: !749, flags: DIFlagPrototyped, spFlags: 0)
!749 = !DISubroutineType(types: !750)
!750 = !{!12, !640, !82, !125}
!751 = !DIImportedEntity(tag: DW_TAG_imported_declaration, scope: !4, entity: !752, file: !612, line: 145)
!752 = !DISubprogram(name: "vprintf", scope: !615, file: !615, line: 371, type: !753, flags: DIFlagPrototyped, spFlags: 0)
!753 = !DISubroutineType(types: !754)
!754 = !{!12, !82, !125}
!755 = !DIImportedEntity(tag: DW_TAG_imported_declaration, scope: !4, entity: !756, file: !612, line: 146)
!756 = !DISubprogram(name: "vsprintf", scope: !615, file: !615, line: 373, type: !757, flags: DIFlagPrototyped, spFlags: 0)
!757 = !DISubroutineType(types: !758)
!758 = !{!12, !154, !82, !125}
!759 = !DIImportedEntity(tag: DW_TAG_imported_declaration, scope: !270, entity: !760, file: !612, line: 175)
!760 = !DISubprogram(name: "snprintf", scope: !615, file: !615, line: 378, type: !761, flags: DIFlagPrototyped, spFlags: 0)
!761 = !DISubroutineType(types: !762)
!762 = !{!12, !154, !79, !82, null}
!763 = !DIImportedEntity(tag: DW_TAG_imported_declaration, scope: !270, entity: !764, file: !612, line: 176)
!764 = !DISubprogram(name: "vfscanf", linkageName: "__isoc99_vfscanf", scope: !615, file: !615, line: 479, type: !749, flags: DIFlagPrototyped, spFlags: 0)
!765 = !DIImportedEntity(tag: DW_TAG_imported_declaration, scope: !270, entity: !766, file: !612, line: 177)
!766 = !DISubprogram(name: "vscanf", linkageName: "__isoc99_vscanf", scope: !615, file: !615, line: 484, type: !753, flags: DIFlagPrototyped, spFlags: 0)
!767 = !DIImportedEntity(tag: DW_TAG_imported_declaration, scope: !270, entity: !768, file: !612, line: 178)
!768 = !DISubprogram(name: "vsnprintf", scope: !615, file: !615, line: 382, type: !769, flags: DIFlagPrototyped, spFlags: 0)
!769 = !DISubroutineType(types: !770)
!770 = !{!12, !154, !79, !82, !125}
!771 = !DIImportedEntity(tag: DW_TAG_imported_declaration, scope: !270, entity: !772, file: !612, line: 179)
!772 = !DISubprogram(name: "vsscanf", linkageName: "__isoc99_vsscanf", scope: !615, file: !615, line: 487, type: !773, flags: DIFlagPrototyped, spFlags: 0)
!773 = !DISubroutineType(types: !774)
!774 = !{!12, !82, !82, !125}
!775 = !DIImportedEntity(tag: DW_TAG_imported_declaration, scope: !4, entity: !760, file: !612, line: 185)
!776 = !DIImportedEntity(tag: DW_TAG_imported_declaration, scope: !4, entity: !764, file: !612, line: 186)
!777 = !DIImportedEntity(tag: DW_TAG_imported_declaration, scope: !4, entity: !766, file: !612, line: 187)
!778 = !DIImportedEntity(tag: DW_TAG_imported_declaration, scope: !4, entity: !768, file: !612, line: 188)
!779 = !DIImportedEntity(tag: DW_TAG_imported_declaration, scope: !4, entity: !772, file: !612, line: 189)
!780 = !{i32 7, !"Dwarf Version", i32 5}
!781 = !{i32 2, !"Debug Info Version", i32 3}
!782 = !{i32 1, !"wchar_size", i32 4}
!783 = !{i32 7, !"PIC Level", i32 2}
!784 = !{i32 7, !"PIE Level", i32 2}
!785 = !{i32 7, !"uwtable", i32 1}
!786 = !{i32 7, !"frame-pointer", i32 2}
!787 = !{!"Ubuntu clang version 14.0.0-1ubuntu1.1"}
!788 = distinct !DISubprogram(name: "get_str", linkageName: "_Z7get_strB5cxx11v", scope: !789, file: !789, line: 3, type: !790, scopeLine: 3, flags: DIFlagPrototyped, spFlags: DISPFlagDefinition, unit: !0, retainedNodes: !798)
!789 = !DIFile(filename: "main.cpp", directory: "/home/vladislavkuznetsov/CLionProjects/llvm-compilation-example", checksumkind: CSK_MD5, checksum: "97f117e0168f779f43f521ceae0f6900")
!790 = !DISubroutineType(types: !791)
!791 = !{!792}
!792 = !DIDerivedType(tag: DW_TAG_pointer_type, baseType: !793, size: 64)
!793 = !DIDerivedType(tag: DW_TAG_typedef, name: "string", scope: !4, file: !794, line: 77, baseType: !795)
!794 = !DIFile(filename: "/usr/bin/../lib/gcc/x86_64-linux-gnu/12/../../../../include/c++/12/bits/stringfwd.h", directory: "")
!795 = !DICompositeType(tag: DW_TAG_class_type, name: "basic_string<char, std::char_traits<char>, std::allocator<char> >", scope: !797, file: !796, line: 1082, size: 256, flags: DIFlagFwdDecl | DIFlagNonTrivial, identifier: "_ZTSNSt7__cxx1112basic_stringIcSt11char_traitsIcESaIcEEE")
!796 = !DIFile(filename: "/usr/bin/../lib/gcc/x86_64-linux-gnu/12/../../../../include/c++/12/bits/basic_string.tcc", directory: "")
!797 = !DINamespace(name: "__cxx11", scope: !4, exportSymbols: true)
!798 = !{}
!799 = !DILocation(line: 4, column: 5, scope: !788)
!800 = distinct !DISubprogram(name: "main", scope: !789, file: !789, line: 7, type: !528, scopeLine: 7, flags: DIFlagPrototyped, spFlags: DISPFlagDefinition, unit: !0, retainedNodes: !798)
!801 = !DILocation(line: 8, column: 5, scope: !800)
!802 = !DILocation(line: 8, column: 16, scope: !800)
!803 = !DILocation(line: 9, column: 1, scope: !800)
